[
{"name":"南风TV","url":"https://agit.ai/Yoursmile7/TVBox/raw/branch/master/live.txt"},
{"name":"阿南TV","url":"https://gitlab.com/ananqiu/ananmtv/-/raw/main/live.txt"},
{"name":"范明明IPV6","url":"https://live.fanmingming.com/tv/m3u/ipv6.m3u"}
]
